{
    "name": "ExcelParser",
    "alias": "excelparser",
    "description": "",
    "keywords": [],
    "active": 1,
    "order": 0,
    "providers": [
        "Modules\\ExcelParser\\Providers\\ExcelParserServiceProvider"
    ],
    "aliases": {},
    "files": [
        "start.php"
    ],
    "requires": []
}
