{
    "name": "FacebookUser",
    "alias": "facebookuser",
    "description": "",
    "keywords": [],
    "active": 1,
    "order": 0,
    "providers": [
        "Modules\\FacebookUser\\Providers\\FacebookUserServiceProvider"
    ],
    "aliases": {},
    "files": [
        "start.php"
    ],
    "requires": []
}
